
<svg width="12px" height="15px" viewBox="0 0 12 15" version="1.1" xmlns="http://www.w3.org/2000/svg" xmlns:xlink="http://www.w3.org/1999/xlink">
    <g id="Page-1" stroke="none" stroke-width="1" fill="none" fill-rule="evenodd">
        <g id="Landing-page" transform="translate(-197.000000, -1454.000000)" fill="#FF8962" fill-rule="nonzero" stroke="#FF8962" stroke-width="0.4">
            <g id="Group-11" transform="translate(198.000000, 1302.000000)">
                <g id="Group-10" transform="translate(0.000000, 148.000000)">
                    <g id="lock" transform="translate(0.000000, 5.000000)">
                        <path d="M9.14814815,4.84201852 L9.14814815,3.49074074 C9.14814815,1.56601852 7.42011111,0 5.2962963,0 C3.17248148,0 1.44444444,1.56601852 1.44444444,3.49074074 L1.44444444,4.84201852 C0.625685185,4.98309259 0,5.69664815 0,6.55537037 L0,11.2599259 C0,12.2192778 0.780722222,13 1.74031481,13 L8.85227778,13 C9.81187037,13 10.5925926,12.2192778 10.5925926,11.2596852 L10.5925926,6.55512963 C10.5925926,5.69664815 9.96690741,4.98309259 9.14814815,4.84201852 Z M1.92592593,3.49074074 C1.92592593,1.83131481 3.43777778,0.481481481 5.2962963,0.481481481 C7.15481481,0.481481481 8.66666667,1.83131481 8.66666667,3.49074074 L8.66666667,4.81481481 L1.92592593,4.81481481 L1.92592593,3.49074074 Z M10.1111111,11.2596852 C10.1111111,11.9537407 9.54633333,12.5185185 8.85227778,12.5185185 L1.74031481,12.5185185 C1.04625926,12.5185185 0.481481481,11.9537407 0.481481481,11.2596852 L0.481481481,6.55512963 C0.481481481,5.86107407 1.04625926,5.2962963 1.74031481,5.2962963 L8.85227778,5.2962963 C9.54633333,5.2962963 10.1111111,5.86107407 10.1111111,6.55512963 L10.1111111,11.2596852 Z" id="Shape"></path>
                        <path d="M5.2962963,6.74074074 C4.76522222,6.74074074 4.33333333,7.17262963 4.33333333,7.7037037 L4.33333333,9.14814815 C4.33333333,9.67922222 4.76522222,10.1111111 5.2962963,10.1111111 C5.82737037,10.1111111 6.25925926,9.67922222 6.25925926,9.14814815 L6.25925926,7.7037037 C6.25925926,7.17262963 5.82737037,6.74074074 5.2962963,6.74074074 Z M5.77777778,9.14814815 C5.77777778,9.41368519 5.56183333,9.62962963 5.2962963,9.62962963 C5.03075926,9.62962963 4.81481481,9.41368519 4.81481481,9.14814815 L4.81481481,7.7037037 C4.81481481,7.43816667 5.03075926,7.22222222 5.2962963,7.22222222 C5.56183333,7.22222222 5.77777778,7.43816667 5.77777778,7.7037037 L5.77777778,9.14814815 Z" id="Shape"></path>
                    </g>
                </g>
            </g>
        </g>
    </g>
</svg>